<svg width="24" height="22" viewBox="0 0 24 22" fill="none" xmlns="http://www.w3.org/2000/svg">
<path fill-rule="evenodd" clip-rule="evenodd" d="M22.9336 1.8223H20.3438C20.3477 1.5723 20.3506 1.3194 20.3506 1.0616C20.3506 0.4756 19.875 0 19.2891 0H4.707C4.1211 0 3.6455 0.4756 3.6455 1.0615C3.6455 1.3193 3.6484 1.5713 3.6523 1.8222H1.0615C0.4756 1.8223 0 2.2988 0 2.8848V6.5303C0 9.9688 2.6729 12.794 6.0498 13.0401C6.1445 13.1983 6.2412 13.3516 6.3418 13.4991C7.7695 15.6016 9.4922 16.3858 10.9365 16.6202V18.3487C9.1914 18.753 7.8154 20.128 7.4121 21.8731H16.584C16.1807 20.128 14.8047 18.753 13.0606 18.3487V16.6202C14.504 16.3858 16.2276 15.6016 17.6544 13.4991C17.754 13.3516 17.8517 13.1983 17.9474 13.0401C21.3244 12.794 23.9962 9.9688 23.9962 6.5303V2.8848C23.9961 2.2988 23.5205 1.8223 22.9336 1.8223ZM2.123 6.5303V3.9463H3.7334C3.9004 6.5674 4.3057 8.8037 4.9453 10.6406C3.2969 10.0029 2.123 8.4014 2.123 6.5303ZM11.998 14.5811C8.205 14.5811 5.9619 10.0596 5.7812 2.1241H18.2148C18.0332 10.0596 15.791 14.5811 11.998 14.5811ZM21.873 6.5303C21.873 8.4014 20.6992 10.003 19.0507 10.6407C19.6903 8.8038 20.0956 6.5675 20.2626 3.9464H21.873V6.5303Z" fill="#EC2227"/>
</svg>
