<?xml version="1.0" encoding="utf-8"?>
<!-- Generator: Adobe Illustrator 23.0.0, SVG Export Plug-In . SVG Version: 6.00 Build 0)  -->
<svg version="1.1" id="Слой_1" xmlns="http://www.w3.org/2000/svg" xmlns:xlink="http://www.w3.org/1999/xlink" x="0px" y="0px"
	 viewBox="0 0 735 795" style="enable-background:new 0 0 735 795;" xml:space="preserve">
<style type="text/css">
	.st0{fill:url(#SVGID_1_);}
</style>
<linearGradient id="SVGID_1_" gradientUnits="userSpaceOnUse" x1="635.3989" y1="174.1353" x2="85.6808" y2="552.7178" gradientTransform="matrix(1 0 0 -1 0 794.88)">
	<stop  offset="0" style="stop-color:#000000;stop-opacity:5.000000e-02"/>
	<stop  offset="8.437419e-02" style="stop-color:#212121;stop-opacity:0.1"/>
	<stop  offset="0.1877" style="stop-color:#3C3B3B;stop-opacity:0.15"/>
	<stop  offset="0.5467" style="stop-color:#4E4E4E;stop-opacity:0.2"/>
	<stop  offset="0.7759" style="stop-color:#757575;stop-opacity:0.3"/>
</linearGradient>
<path class="st0" d="M702.9,308.5c-9.4,97.4-68.9,141.6-150.3,176.1C483,514.2,400,530,349.1,585c-50.9,54.9-72,121.6-141.5,149.8
	c-93.2,37.7-167.2-16.3-195.5-89.4c-39.3-101.3,22.5-189.9,110-223.2c72.5-27.5,150-55,191-128.8c37.8-68,33.1-176.7,112.1-216
	C515,32.9,720.2,128.2,702.9,308.5z"/>
</svg>
